<svg width="39" height="41" viewBox="0 0 39 41" fill="none" xmlns="http://www.w3.org/2000/svg">
<ellipse cx="19.2785" cy="20.0395" rx="19.2785" ry="20.0395" fill="#FF002E"/>
<path d="M19.3407 15.7707V20.8751" stroke="white" stroke-width="2" stroke-linecap="round"/>
<path d="M19.3407 24.4482V24.9587" stroke="white" stroke-width="2" stroke-linecap="round"/>
<path d="M9.36908 25.9958L17.6551 9.69812C18.3828 8.26674 20.2986 8.26674 21.0264 9.69812L29.3124 25.9958C30.0102 27.3685 29.0842 29.0422 27.6267 29.0422H11.0547C9.59725 29.0422 8.67117 27.3685 9.36908 25.9958V25.9958Z" stroke="white" stroke-width="2" stroke-linecap="round" stroke-linejoin="round"/>
</svg>
