<svg width="39" height="40" viewBox="0 0 39 40" fill="none" xmlns="http://www.w3.org/2000/svg">
<ellipse cx="19.2405" cy="20" rx="19.2405" ry="20" fill="#00A3FF"/>
<path d="M15.0943 12.1519V16.107H11.1392" stroke="white" stroke-width="2" stroke-linecap="round" stroke-linejoin="round"/>
<path d="M23.0045 12.1519V16.107H26.9597" stroke="white" stroke-width="2" stroke-linecap="round" stroke-linejoin="round"/>
<path d="M11.1392 24.0172H15.0943V27.9723" stroke="white" stroke-width="2" stroke-linecap="round" stroke-linejoin="round"/>
<path d="M26.9597 24.0172H23.0045V27.9723" stroke="white" stroke-width="2" stroke-linecap="round" stroke-linejoin="round"/>
</svg>
